LSTM_accelerator.sim/operation_controller/behav/xsim/simulate.log
Time resolution is 1 ps
Time =                 4000, finish = x
###############At time = 4000, state = 0
At time = 7000, finish_layer1 = 1

 FINISH!!!!!!!!!!!!!!!!!!!!!!!!!!!
At time = 17000, finish_layer1 = 1

 FINISH!!!!!!!!!!!!!!!!!!!!!!!!!!!
At time = 27000, finish_layer1 = 1

 FINISH!!!!!!!!!!!!!!!!!!!!!!!!!!!
Time =                33000, start enable, finish = 0
###############At time = 35000, state = 1
At time = 37000, finish_layer1 = 1
--------------At time = 37000, CALCULATE LAYER-------------------

At time =                37000, Local enable = 0
At time =                37000, vector_x = {4, 8}, step = 0
At time = 37000, init_n1 = 0
At time = 37000, enable_input = 0, finish_input = 1, enable_recurrent = 0, finish_recurrent = 1
At time = 37000, enable_cell = 0, finish_cell = 1, enable_output = 0, finish_output = 1

At time = 37000, u1_output_input_1 = 0, u1_output_forget_1 = 0, u1_output_cell_update_1 = 0, u1_output_output_1 = 0

At time = 37000, u1_before_add_output_input_3 = 0, u1_before_add_output_forget_3 = 0, u1_before_add_output_cell_update_3 = 0, u1_before_add_output_output_3 = 0
At time = 37000, u1_after_add_output_input3 = xxxxxxxx, u1_after_add_output_forget3 = xxxxxxxx, u1_after_add_output_cell3 = xxxxxxxx, u1_after_add_output_output3 = xxxxxxxx
At time = 37000, u1_output_input3_sigmoid = 7f, u1_output_forget3_sigmoid = 7f, u1_output_cell_update3_tanh = 7f, u1_output_output3_sigmoid = 7f

At time = 37000, u1_output_cell = xxxxx, u1_tanh_output_cell = 7f

At time = 37000, u1_hidden_state = xx, u1_prev_ht = xx

$$$$$$$$$$$$$$$$$$$$$$$$$$$$$$$$$
At time = 37000, init_n2 = 0
At time = 37000, enable_input = 0, finish_input = 1, enable_recurrent = 0, finish_recurrent = 1
At time = 37000, enable_cell = 0, finish_cell = 1, enable_output = 0, finish_output = 1

At time = 37000, u2_output_input_1 = 0, u2_output_forget_1 = 0, u2_output_cell_update_1 = 0, u2_output_output_1 = 0
At time = 37000, u2_before_add_output_input_3 = 0, u2_before_add_output_forget_3 = 0, u2_before_add_output_cell_update_3 = 0, u2_before_add_output_output_3 = 0
At time = 37000, u2_after_add_output_input3 = xxxxxxxx, u2_after_add_output_forget3 = xxxxxxxx, u2_after_add_output_cell3 = xxxxxxxx, u2_after_add_output_output3 = xxxxxxxx
At time = 37000, u2_output_input3_sigmoid = 7f, u2_output_forget3_sigmoid = 7f, u2_output_cell_update3_tanh = 7f, u2_output_output3_sigmoid = 7f

At time = 37000, u2_output_cell = xxxxx, u2_tanh_output_cell = 7f

At time = 37000, u2_hidden_state = xx, u2_prev_ht = xx
###############At time = 45000, state = 2
At time = 47000, finish_layer1 = 1
--------------At time = 47000, CALCULATE LAYER-------------------

At time =                47000, Local enable = 1
At time =                47000, vector_x = {4, 8}, step = 0
At time = 47000, init_n1 = 0
At time = 47000, enable_input = 0, finish_input = 1, enable_recurrent = 0, finish_recurrent = 1
At time = 47000, enable_cell = 0, finish_cell = 1, enable_output = 0, finish_output = 1

At time = 47000, u1_output_input_1 = 0, u1_output_forget_1 = 0, u1_output_cell_update_1 = 0, u1_output_output_1 = 0

At time = 47000, u1_before_add_output_input_3 = 0, u1_before_add_output_forget_3 = 0, u1_before_add_output_cell_update_3 = 0, u1_before_add_output_output_3 = 0
At time = 47000, u1_after_add_output_input3 = xxxxxxxx, u1_after_add_output_forget3 = xxxxxxxx, u1_after_add_output_cell3 = xxxxxxxx, u1_after_add_output_output3 = xxxxxxxx
At time = 47000, u1_output_input3_sigmoid = 7f, u1_output_forget3_sigmoid = 7f, u1_output_cell_update3_tanh = 7f, u1_output_output3_sigmoid = 7f

At time = 47000, u1_output_cell = xxxxx, u1_tanh_output_cell = 7f

At time = 47000, u1_hidden_state = xx, u1_prev_ht = xx

$$$$$$$$$$$$$$$$$$$$$$$$$$$$$$$$$
At time = 47000, init_n2 = 0
At time = 47000, enable_input = 0, finish_input = 1, enable_recurrent = 0, finish_recurrent = 1
At time = 47000, enable_cell = 0, finish_cell = 1, enable_output = 0, finish_output = 1

At time = 47000, u2_output_input_1 = 0, u2_output_forget_1 = 0, u2_output_cell_update_1 = 0, u2_output_output_1 = 0
At time = 47000, u2_before_add_output_input_3 = 0, u2_before_add_output_forget_3 = 0, u2_before_add_output_cell_update_3 = 0, u2_before_add_output_output_3 = 0
At time = 47000, u2_after_add_output_input3 = xxxxxxxx, u2_after_add_output_forget3 = xxxxxxxx, u2_after_add_output_cell3 = xxxxxxxx, u2_after_add_output_output3 = xxxxxxxx
At time = 47000, u2_output_input3_sigmoid = 7f, u2_output_forget3_sigmoid = 7f, u2_output_cell_update3_tanh = 7f, u2_output_output3_sigmoid = 7f

At time = 47000, u2_output_cell = xxxxx, u2_tanh_output_cell = 7f

At time = 47000, u2_hidden_state = xx, u2_prev_ht = xx
###############At time = 55000, state = 3
At time = 57000, finish_layer1 = 1
--------------At time = 57000, CALCULATE LAYER-------------------

At time =                57000, Local enable = 1
At time =                57000, vector_x = {4, 8}, step = 0
At time = 57000, init_n1 = 1
At time = 57000, enable_input = 1, finish_input = 1, enable_recurrent = 0, finish_recurrent = 1
At time = 57000, enable_cell = 0, finish_cell = 1, enable_output = 0, finish_output = 1

At time = 57000, u1_output_input_1 = 0, u1_output_forget_1 = 0, u1_output_cell_update_1 = 0, u1_output_output_1 = 0

At time = 57000, u1_before_add_output_input_3 = 0, u1_before_add_output_forget_3 = 0, u1_before_add_output_cell_update_3 = 0, u1_before_add_output_output_3 = 0
At time = 57000, u1_after_add_output_input3 = xxxxxxxx, u1_after_add_output_forget3 = xxxxxxxx, u1_after_add_output_cell3 = xxxxxxxx, u1_after_add_output_output3 = xxxxxxxx
At time = 57000, u1_output_input3_sigmoid = 7f, u1_output_forget3_sigmoid = 7f, u1_output_cell_update3_tanh = 7f, u1_output_output3_sigmoid = 7f

At time = 57000, u1_output_cell = xxxxx, u1_tanh_output_cell = 7f

At time = 57000, u1_hidden_state = xx, u1_prev_ht = xx

$$$$$$$$$$$$$$$$$$$$$$$$$$$$$$$$$
At time = 57000, init_n2 = 1
At time = 57000, enable_input = 1, finish_input = 1, enable_recurrent = 0, finish_recurrent = 1
At time = 57000, enable_cell = 0, finish_cell = 1, enable_output = 0, finish_output = 1

At time = 57000, u2_output_input_1 = 0, u2_output_forget_1 = 0, u2_output_cell_update_1 = 0, u2_output_output_1 = 0
At time = 57000, u2_before_add_output_input_3 = 0, u2_before_add_output_forget_3 = 0, u2_before_add_output_cell_update_3 = 0, u2_before_add_output_output_3 = 0
At time = 57000, u2_after_add_output_input3 = xxxxxxxx, u2_after_add_output_forget3 = xxxxxxxx, u2_after_add_output_cell3 = xxxxxxxx, u2_after_add_output_output3 = xxxxxxxx
At time = 57000, u2_output_input3_sigmoid = 7f, u2_output_forget3_sigmoid = 7f, u2_output_cell_update3_tanh = 7f, u2_output_output3_sigmoid = 7f

At time = 57000, u2_output_cell = xxxxx, u2_tanh_output_cell = 7f

At time = 57000, u2_hidden_state = xx, u2_prev_ht = xx
-------At time = 65000, finish_layer1 = 0
###############At time = 65000, state = 4
At time = 67000, finish_layer1 = 0
--------------At time = 67000, CALCULATE LAYER-------------------

At time =                67000, Local enable = 1
At time =                67000, vector_x = {4, 8}, step = 0
At time = 67000, init_n1 = 1
At time = 67000, enable_input = 0, finish_input = 1, enable_recurrent = 1, finish_recurrent = 1
At time = 67000, enable_cell = 0, finish_cell = 1, enable_output = 0, finish_output = 1

At time = 67000, u1_output_input_1 = 5b, u1_output_forget_1 = 5c, u1_output_cell_update_1 = 5d, u1_output_output_1 = 5e

At time = 67000, u1_before_add_output_input_3 = 0, u1_before_add_output_forget_3 = 0, u1_before_add_output_cell_update_3 = 0, u1_before_add_output_output_3 = 0
At time = 67000, u1_after_add_output_input3 = 5b, u1_after_add_output_forget3 = 5c, u1_after_add_output_cell3 = 5d, u1_after_add_output_output3 = 5e
At time = 67000, u1_output_input3_sigmoid = 7f, u1_output_forget3_sigmoid = 7f, u1_output_cell_update3_tanh = 0, u1_output_output3_sigmoid = 7f

At time = 67000, u1_output_cell = xxxxx, u1_tanh_output_cell = 7f

At time = 67000, u1_hidden_state = xx, u1_prev_ht = xx

$$$$$$$$$$$$$$$$$$$$$$$$$$$$$$$$$
At time = 67000, init_n2 = 1
At time = 67000, enable_input = 0, finish_input = 1, enable_recurrent = 1, finish_recurrent = 1
At time = 67000, enable_cell = 0, finish_cell = 1, enable_output = 0, finish_output = 1

At time = 67000, u2_output_input_1 = 789ac47e, u2_output_forget_1 = 89abd580, u2_output_cell_update_1 = 9abce5a1, u2_output_output_1 = abcde7b2
At time = 67000, u2_before_add_output_input_3 = 0, u2_before_add_output_forget_3 = 0, u2_before_add_output_cell_update_3 = 0, u2_before_add_output_output_3 = 0
At time = 67000, u2_after_add_output_input3 = 789ac47e, u2_after_add_output_forget3 = 89abd580, u2_after_add_output_cell3 = 9abce5a1, u2_after_add_output_output3 = abcde7b2
At time = 67000, u2_output_input3_sigmoid = 7f, u2_output_forget3_sigmoid = 0, u2_output_cell_update3_tanh = 83, u2_output_output3_sigmoid = 3

At time = 67000, u2_output_cell = xxxxx, u2_tanh_output_cell = 7f

At time = 67000, u2_hidden_state = xx, u2_prev_ht = xx
At time = 77000, finish_layer1 = 0
--------------At time = 77000, CALCULATE LAYER-------------------

At time =                77000, Local enable = 1
At time =                77000, vector_x = {4, 8}, step = 0
At time = 77000, init_n1 = 1
At time = 77000, enable_input = 0, finish_input = 1, enable_recurrent = 0, finish_recurrent = 1
At time = 77000, enable_cell = 1, finish_cell = 1, enable_output = 0, finish_output = 1

At time = 77000, u1_output_input_1 = 0, u1_output_forget_1 = 0, u1_output_cell_update_1 = 0, u1_output_output_1 = 0

At time = 77000, u1_before_add_output_input_3 = 5b, u1_before_add_output_forget_3 = 5c, u1_before_add_output_cell_update_3 = 5d, u1_before_add_output_output_3 = 5e
At time = 77000, u1_after_add_output_input3 = 5b, u1_after_add_output_forget3 = 5c, u1_after_add_output_cell3 = 5d, u1_after_add_output_output3 = 5e
At time = 77000, u1_output_input3_sigmoid = 7f, u1_output_forget3_sigmoid = 7f, u1_output_cell_update3_tanh = 0, u1_output_output3_sigmoid = 7f

At time = 77000, u1_output_cell = 0, u1_tanh_output_cell = 0

At time = 77000, u1_hidden_state = xx, u1_prev_ht = xx

$$$$$$$$$$$$$$$$$$$$$$$$$$$$$$$$$
At time = 77000, init_n2 = 1
At time = 77000, enable_input = 0, finish_input = 1, enable_recurrent = 0, finish_recurrent = 1
At time = 77000, enable_cell = 1, finish_cell = 1, enable_output = 0, finish_output = 1

At time = 77000, u2_output_input_1 = 0, u2_output_forget_1 = 0, u2_output_cell_update_1 = 0, u2_output_output_1 = 0
At time = 77000, u2_before_add_output_input_3 = 789ac47e, u2_before_add_output_forget_3 = 89abd580, u2_before_add_output_cell_update_3 = 9abce5a1, u2_before_add_output_output_3 = abcde7b2
At time = 77000, u2_after_add_output_input3 = 789ac47e, u2_after_add_output_forget3 = 89abd580, u2_after_add_output_cell3 = 9abce5a1, u2_after_add_output_output3 = abcde7b2
At time = 77000, u2_output_input3_sigmoid = 7f, u2_output_forget3_sigmoid = 0, u2_output_cell_update3_tanh = 83, u2_output_output3_sigmoid = 3

At time = 77000, u2_output_cell = 40fd, u2_tanh_output_cell = 4d

At time = 77000, u2_hidden_state = xx, u2_prev_ht = xx
At time = 87000, finish_layer1 = 0
--------------At time = 87000, CALCULATE LAYER-------------------

At time =                87000, Local enable = 1
At time =                87000, vector_x = {4, 8}, step = 1
At time = 87000, init_n1 = 1
At time = 87000, enable_input = 0, finish_input = 1, enable_recurrent = 0, finish_recurrent = 1
At time = 87000, enable_cell = 0, finish_cell = 1, enable_output = 1, finish_output = 1

At time = 87000, u1_output_input_1 = 0, u1_output_forget_1 = 0, u1_output_cell_update_1 = 0, u1_output_output_1 = 0

At time = 87000, u1_before_add_output_input_3 = 0, u1_before_add_output_forget_3 = 0, u1_before_add_output_cell_update_3 = 0, u1_before_add_output_output_3 = 0
At time = 87000, u1_after_add_output_input3 = 5b, u1_after_add_output_forget3 = 5c, u1_after_add_output_cell3 = 5d, u1_after_add_output_output3 = 5e
At time = 87000, u1_output_input3_sigmoid = 7f, u1_output_forget3_sigmoid = 7f, u1_output_cell_update3_tanh = 0, u1_output_output3_sigmoid = 7f

At time = 87000, u1_output_cell = 0, u1_tanh_output_cell = 0

At time = 87000, u1_hidden_state = 0, u1_prev_ht = 0

$$$$$$$$$$$$$$$$$$$$$$$$$$$$$$$$$
At time = 87000, init_n2 = 1
At time = 87000, enable_input = 0, finish_input = 1, enable_recurrent = 0, finish_recurrent = 1
At time = 87000, enable_cell = 0, finish_cell = 1, enable_output = 1, finish_output = 1

At time = 87000, u2_output_input_1 = 0, u2_output_forget_1 = 0, u2_output_cell_update_1 = 0, u2_output_output_1 = 0
At time = 87000, u2_before_add_output_input_3 = 0, u2_before_add_output_forget_3 = 0, u2_before_add_output_cell_update_3 = 0, u2_before_add_output_output_3 = 0
At time = 87000, u2_after_add_output_input3 = 789ac47e, u2_after_add_output_forget3 = 89abd580, u2_after_add_output_cell3 = 9abce5a1, u2_after_add_output_output3 = abcde7b2
At time = 87000, u2_output_input3_sigmoid = 7f, u2_output_forget3_sigmoid = 0, u2_output_cell_update3_tanh = 83, u2_output_output3_sigmoid = 3

At time = 87000, u2_output_cell = 40fd, u2_tanh_output_cell = 4d

At time = 87000, u2_hidden_state = e7, u2_prev_ht = e7
At time = 97000, finish_layer1 = 0
--------------At time = 97000, CALCULATE LAYER-------------------

At time =                97000, Local enable = 1
At time =                97000, vector_x = {4, 8}, step = 1
At time = 97000, init_n1 = 1
At time = 97000, enable_input = 1, finish_input = 1, enable_recurrent = 0, finish_recurrent = 1
At time = 97000, enable_cell = 0, finish_cell = 1, enable_output = 0, finish_output = 1

At time = 97000, u1_output_input_1 = 0, u1_output_forget_1 = 0, u1_output_cell_update_1 = 0, u1_output_output_1 = 0

At time = 97000, u1_before_add_output_input_3 = 0, u1_before_add_output_forget_3 = 0, u1_before_add_output_cell_update_3 = 0, u1_before_add_output_output_3 = 0
At time = 97000, u1_after_add_output_input3 = 5b, u1_after_add_output_forget3 = 5c, u1_after_add_output_cell3 = 5d, u1_after_add_output_output3 = 5e
At time = 97000, u1_output_input3_sigmoid = 7f, u1_output_forget3_sigmoid = 7f, u1_output_cell_update3_tanh = 0, u1_output_output3_sigmoid = 7f

At time = 97000, u1_output_cell = 0, u1_tanh_output_cell = 0

At time = 97000, u1_hidden_state = 0, u1_prev_ht = 0

$$$$$$$$$$$$$$$$$$$$$$$$$$$$$$$$$
At time = 97000, init_n2 = 1
At time = 97000, enable_input = 1, finish_input = 1, enable_recurrent = 0, finish_recurrent = 1
At time = 97000, enable_cell = 0, finish_cell = 1, enable_output = 0, finish_output = 1

At time = 97000, u2_output_input_1 = 0, u2_output_forget_1 = 0, u2_output_cell_update_1 = 0, u2_output_output_1 = 0
At time = 97000, u2_before_add_output_input_3 = 0, u2_before_add_output_forget_3 = 0, u2_before_add_output_cell_update_3 = 0, u2_before_add_output_output_3 = 0
At time = 97000, u2_after_add_output_input3 = 789ac47e, u2_after_add_output_forget3 = 89abd580, u2_after_add_output_cell3 = 9abce5a1, u2_after_add_output_output3 = abcde7b2
At time = 97000, u2_output_input3_sigmoid = 7f, u2_output_forget3_sigmoid = 0, u2_output_cell_update3_tanh = 83, u2_output_output3_sigmoid = 3

At time = 97000, u2_output_cell = 40fd, u2_tanh_output_cell = 4d

At time = 97000, u2_hidden_state = e7, u2_prev_ht = e7
At time = 107000, finish_layer1 = 0
--------------At time = 107000, CALCULATE LAYER-------------------

At time =               107000, Local enable = 1
At time =               107000, vector_x = {4, 8}, step = 1
At time = 107000, init_n1 = 1
At time = 107000, enable_input = 0, finish_input = 1, enable_recurrent = 1, finish_recurrent = 1
At time = 107000, enable_cell = 0, finish_cell = 1, enable_output = 0, finish_output = 1

At time = 107000, u1_output_input_1 = 5b, u1_output_forget_1 = 5c, u1_output_cell_update_1 = 5d, u1_output_output_1 = 5e

At time = 107000, u1_before_add_output_input_3 = 738, u1_before_add_output_forget_3 = 738, u1_before_add_output_cell_update_3 = 738, u1_before_add_output_output_3 = 738
At time = 107000, u1_after_add_output_input3 = 793, u1_after_add_output_forget3 = 794, u1_after_add_output_cell3 = 795, u1_after_add_output_output3 = 796
At time = 107000, u1_output_input3_sigmoid = 7f, u1_output_forget3_sigmoid = 7f, u1_output_cell_update3_tanh = 0, u1_output_output3_sigmoid = 7f

At time = 107000, u1_output_cell = 0, u1_tanh_output_cell = 0

At time = 107000, u1_hidden_state = 0, u1_prev_ht = 0

$$$$$$$$$$$$$$$$$$$$$$$$$$$$$$$$$
At time = 107000, init_n2 = 1
At time = 107000, enable_input = 0, finish_input = 1, enable_recurrent = 1, finish_recurrent = 1
At time = 107000, enable_cell = 0, finish_cell = 1, enable_output = 0, finish_output = 1

At time = 107000, u2_output_input_1 = 789ac47e, u2_output_forget_1 = 89abd580, u2_output_cell_update_1 = 9abce5a1, u2_output_output_1 = abcde7b2
At time = 107000, u2_before_add_output_input_3 = 93fc, u2_before_add_output_forget_3 = 93fc, u2_before_add_output_cell_update_3 = 93fc, u2_before_add_output_output_3 = 93fc
At time = 107000, u2_after_add_output_input3 = 789b587a, u2_after_add_output_forget3 = 89ac697c, u2_after_add_output_cell3 = 9abd799d, u2_after_add_output_output3 = abce7bae
At time = 107000, u2_output_input3_sigmoid = 7f, u2_output_forget3_sigmoid = 0, u2_output_cell_update3_tanh = 83, u2_output_output3_sigmoid = 3

At time = 107000, u2_output_cell = 40fd, u2_tanh_output_cell = 4d

At time = 107000, u2_hidden_state = e7, u2_prev_ht = e7
At time = 117000, finish_layer1 = 0
--------------At time = 117000, CALCULATE LAYER-------------------

At time =               117000, Local enable = 1
At time =               117000, vector_x = {4, 8}, step = 1
At time = 117000, init_n1 = 1
At time = 117000, enable_input = 0, finish_input = 1, enable_recurrent = 0, finish_recurrent = 1
At time = 117000, enable_cell = 1, finish_cell = 1, enable_output = 0, finish_output = 1

At time = 117000, u1_output_input_1 = 0, u1_output_forget_1 = 0, u1_output_cell_update_1 = 0, u1_output_output_1 = 0

At time = 117000, u1_before_add_output_input_3 = 793, u1_before_add_output_forget_3 = 794, u1_before_add_output_cell_update_3 = 795, u1_before_add_output_output_3 = 796
At time = 117000, u1_after_add_output_input3 = 793, u1_after_add_output_forget3 = 794, u1_after_add_output_cell3 = 795, u1_after_add_output_output3 = 796
At time = 117000, u1_output_input3_sigmoid = 7f, u1_output_forget3_sigmoid = 7f, u1_output_cell_update3_tanh = 0, u1_output_output3_sigmoid = 7f

At time = 117000, u1_output_cell = 0, u1_tanh_output_cell = 0

At time = 117000, u1_hidden_state = 0, u1_prev_ht = 0

$$$$$$$$$$$$$$$$$$$$$$$$$$$$$$$$$
At time = 117000, init_n2 = 1
At time = 117000, enable_input = 0, finish_input = 1, enable_recurrent = 0, finish_recurrent = 1
At time = 117000, enable_cell = 1, finish_cell = 1, enable_output = 0, finish_output = 1

At time = 117000, u2_output_input_1 = 0, u2_output_forget_1 = 0, u2_output_cell_update_1 = 0, u2_output_output_1 = 0
At time = 117000, u2_before_add_output_input_3 = 789b587a, u2_before_add_output_forget_3 = 89ac697c, u2_before_add_output_cell_update_3 = 9abd799d, u2_before_add_output_output_3 = abce7bae
At time = 117000, u2_after_add_output_input3 = 789b587a, u2_after_add_output_forget3 = 89ac697c, u2_after_add_output_cell3 = 9abd799d, u2_after_add_output_output3 = abce7bae
At time = 117000, u2_output_input3_sigmoid = 7f, u2_output_forget3_sigmoid = 0, u2_output_cell_update3_tanh = 83, u2_output_output3_sigmoid = 3

At time = 117000, u2_output_cell = 40fd, u2_tanh_output_cell = 4d

At time = 117000, u2_hidden_state = e7, u2_prev_ht = e7
At time = 127000, finish_layer1 = 0
--------------At time = 127000, CALCULATE LAYER-------------------

At time =               127000, Local enable = 1
At time =               127000, vector_x = {4, 8}, step = 0
At time = 127000, init_n1 = 1
At time = 127000, enable_input = 0, finish_input = 1, enable_recurrent = 0, finish_recurrent = 1
At time = 127000, enable_cell = 0, finish_cell = 1, enable_output = 1, finish_output = 1

At time = 127000, u1_output_input_1 = 0, u1_output_forget_1 = 0, u1_output_cell_update_1 = 0, u1_output_output_1 = 0

At time = 127000, u1_before_add_output_input_3 = 0, u1_before_add_output_forget_3 = 0, u1_before_add_output_cell_update_3 = 0, u1_before_add_output_output_3 = 0
At time = 127000, u1_after_add_output_input3 = 793, u1_after_add_output_forget3 = 794, u1_after_add_output_cell3 = 795, u1_after_add_output_output3 = 796
At time = 127000, u1_output_input3_sigmoid = 7f, u1_output_forget3_sigmoid = 7f, u1_output_cell_update3_tanh = 0, u1_output_output3_sigmoid = 7f

At time = 127000, u1_output_cell = 0, u1_tanh_output_cell = 0

At time = 127000, u1_hidden_state = 0, u1_prev_ht = 0

$$$$$$$$$$$$$$$$$$$$$$$$$$$$$$$$$
At time = 127000, init_n2 = 1
At time = 127000, enable_input = 0, finish_input = 1, enable_recurrent = 0, finish_recurrent = 1
At time = 127000, enable_cell = 0, finish_cell = 1, enable_output = 1, finish_output = 1

At time = 127000, u2_output_input_1 = 0, u2_output_forget_1 = 0, u2_output_cell_update_1 = 0, u2_output_output_1 = 0
At time = 127000, u2_before_add_output_input_3 = 0, u2_before_add_output_forget_3 = 0, u2_before_add_output_cell_update_3 = 0, u2_before_add_output_output_3 = 0
At time = 127000, u2_after_add_output_input3 = 789b587a, u2_after_add_output_forget3 = 89ac697c, u2_after_add_output_cell3 = 9abd799d, u2_after_add_output_output3 = abce7bae
At time = 127000, u2_output_input3_sigmoid = 7f, u2_output_forget3_sigmoid = 0, u2_output_cell_update3_tanh = 83, u2_output_output3_sigmoid = 3

At time = 127000, u2_output_cell = 40fd, u2_tanh_output_cell = 4d

At time = 127000, u2_hidden_state = e7, u2_prev_ht = e7
At time = 137000, finish_layer1 = 0
--------------At time = 137000, CALCULATE LAYER-------------------

At time =               137000, Local enable = 1
At time =               137000, vector_x = {4, 8}, step = 0
At time = 137000, init_n1 = 1
At time = 137000, enable_input = 0, finish_input = 1, enable_recurrent = 0, finish_recurrent = 1
At time = 137000, enable_cell = 0, finish_cell = 1, enable_output = 0, finish_output = 1

At time = 137000, u1_output_input_1 = 0, u1_output_forget_1 = 0, u1_output_cell_update_1 = 0, u1_output_output_1 = 0

At time = 137000, u1_before_add_output_input_3 = 0, u1_before_add_output_forget_3 = 0, u1_before_add_output_cell_update_3 = 0, u1_before_add_output_output_3 = 0
At time = 137000, u1_after_add_output_input3 = 793, u1_after_add_output_forget3 = 794, u1_after_add_output_cell3 = 795, u1_after_add_output_output3 = 796
At time = 137000, u1_output_input3_sigmoid = 7f, u1_output_forget3_sigmoid = 7f, u1_output_cell_update3_tanh = 0, u1_output_output3_sigmoid = 7f

At time = 137000, u1_output_cell = 0, u1_tanh_output_cell = 0

At time = 137000, u1_hidden_state = 0, u1_prev_ht = 0

$$$$$$$$$$$$$$$$$$$$$$$$$$$$$$$$$
At time = 137000, init_n2 = 1
At time = 137000, enable_input = 0, finish_input = 1, enable_recurrent = 0, finish_recurrent = 1
At time = 137000, enable_cell = 0, finish_cell = 1, enable_output = 0, finish_output = 1

At time = 137000, u2_output_input_1 = 0, u2_output_forget_1 = 0, u2_output_cell_update_1 = 0, u2_output_output_1 = 0
At time = 137000, u2_before_add_output_input_3 = 0, u2_before_add_output_forget_3 = 0, u2_before_add_output_cell_update_3 = 0, u2_before_add_output_output_3 = 0
At time = 137000, u2_after_add_output_input3 = 789b587a, u2_after_add_output_forget3 = 89ac697c, u2_after_add_output_cell3 = 9abd799d, u2_after_add_output_output3 = abce7bae
At time = 137000, u2_output_input3_sigmoid = 7f, u2_output_forget3_sigmoid = 0, u2_output_cell_update3_tanh = 83, u2_output_output3_sigmoid = 3

At time = 137000, u2_output_cell = 40fd, u2_tanh_output_cell = 4d

At time = 137000, u2_hidden_state = e7, u2_prev_ht = e7
At time = 147000, finish_layer1 = 1
--------------At time = 147000, CALCULATE LAYER-------------------

At time =               147000, Local enable = 1
At time =               147000, vector_x = {4, 8}, step = 0
At time = 147000, init_n1 = 1
At time = 147000, enable_input = 0, finish_input = 1, enable_recurrent = 0, finish_recurrent = 1
At time = 147000, enable_cell = 0, finish_cell = 1, enable_output = 0, finish_output = 1

At time = 147000, u1_output_input_1 = 0, u1_output_forget_1 = 0, u1_output_cell_update_1 = 0, u1_output_output_1 = 0

At time = 147000, u1_before_add_output_input_3 = 0, u1_before_add_output_forget_3 = 0, u1_before_add_output_cell_update_3 = 0, u1_before_add_output_output_3 = 0
At time = 147000, u1_after_add_output_input3 = 793, u1_after_add_output_forget3 = 794, u1_after_add_output_cell3 = 795, u1_after_add_output_output3 = 796
At time = 147000, u1_output_input3_sigmoid = 7f, u1_output_forget3_sigmoid = 7f, u1_output_cell_update3_tanh = 0, u1_output_output3_sigmoid = 7f

At time = 147000, u1_output_cell = 0, u1_tanh_output_cell = 0

At time = 147000, u1_hidden_state = 0, u1_prev_ht = 0

$$$$$$$$$$$$$$$$$$$$$$$$$$$$$$$$$
At time = 147000, init_n2 = 1
At time = 147000, enable_input = 0, finish_input = 1, enable_recurrent = 0, finish_recurrent = 1
At time = 147000, enable_cell = 0, finish_cell = 1, enable_output = 0, finish_output = 1

At time = 147000, u2_output_input_1 = 0, u2_output_forget_1 = 0, u2_output_cell_update_1 = 0, u2_output_output_1 = 0
At time = 147000, u2_before_add_output_input_3 = 0, u2_before_add_output_forget_3 = 0, u2_before_add_output_cell_update_3 = 0, u2_before_add_output_output_3 = 0
At time = 147000, u2_after_add_output_input3 = 789b587a, u2_after_add_output_forget3 = 89ac697c, u2_after_add_output_cell3 = 9abd799d, u2_after_add_output_output3 = abce7bae
At time = 147000, u2_output_input3_sigmoid = 7f, u2_output_forget3_sigmoid = 0, u2_output_cell_update3_tanh = 83, u2_output_output3_sigmoid = 3

At time = 147000, u2_output_cell = 40fd, u2_tanh_output_cell = 4d

At time = 147000, u2_hidden_state = e7, u2_prev_ht = e7
###############At time = 155000, state = 5
At time = 157000, finish_layer1 = 1

------------------At time = 157000, CALCULATE FC -----------------------
At time = 157000, vector_input = [0, e7, 0, e7]
At time = 157000, vector_bias = [abcd0123, abcd012d]
At time = 157000, vector_output = [xx, xx]
###############At time = 165000, state = 6
At time = 167000, finish_layer1 = 1

------------------At time = 167000, OUTPUT     -----------------------
At time = 167000, vector_output = [7f, c1]
###############At time = 175000, state = 0

---------------------Time =               175000, finish = 1--------------------
At time = 177000, finish_layer1 = 1

------------------At time = 177000, OUTPUT     -----------------------
At time = 177000, vector_output = [7f, c1]
At time = 187000, finish_layer1 = 1

 FINISH!!!!!!!!!!!!!!!!!!!!!!!!!!!
At time = 197000, finish_layer1 = 1

 FINISH!!!!!!!!!!!!!!!!!!!!!!!!!!!
