LSTM_accelerator.sim/sim_1/behav/xsim/simulate.log
Time resolution is 1 ps
tests =           0, time = 10, data_in = 80000006 (hex), data_out = 10000001 
tests =           1, time = 20, data_in = 90041d37 (hex), data_out = 10000010 
tests =           2, time = 30, data_in = 9973a50f (hex), data_out = 10000011 
tests =           3, time = 40, data_in = a56ceffc (hex), data_out = 10000101 
tests =           4, time = 50, data_in = a9bab234 (hex), data_out = 10000110 
tests =           5, time = 60, data_in = ad623a06 (hex), data_out = 10000111 
tests =           6, time = 70, data_in = b0900e11 (hex), data_out = 10001000 
tests =           7, time = 80, data_in = b360eb90 (hex), data_out = 10001001 
tests =           8, time = 90, data_in = b5e87484 (hex), data_out = 10001010 
tests =           9, time = 100, data_in = b834ab38 (hex), data_out = 10001011 
tests =          10, time = 110, data_in = ba4fe888 (hex), data_out = 10001100 
tests =          11, time = 120, data_in = bc420896 (hex), data_out = 10001101 
tests =          12, time = 130, data_in = be1127d5 (hex), data_out = 10001110 
tests =          13, time = 140, data_in = bfc21ebc (hex), data_out = 10001111 
tests =          14, time = 150, data_in = c158d57d (hex), data_out = 10010000 
tests =          15, time = 160, data_in = c2d87e59 (hex), data_out = 10010001 
tests =          16, time = 170, data_in = c443bf3e (hex), data_out = 10010010 
tests =          17, time = 180, data_in = c59cd028 (hex), data_out = 10010011 
tests =          18, time = 190, data_in = c6e591ae (hex), data_out = 10010100 
tests =          19, time = 200, data_in = c81f9e17 (hex), data_out = 10010101 
tests =          20, time = 210, data_in = c94c566f (hex), data_out = 10010110 
tests =          21, time = 220, data_in = ca6cecb4 (hex), data_out = 10010111 
tests =          22, time = 230, data_in = cb826bd9 (hex), data_out = 10011000 
tests =          23, time = 240, data_in = cc8dbe2b (hex), data_out = 10011001 
tests =          24, time = 250, data_in = cd8fb26a (hex), data_out = 10011010 
tests =          25, time = 260, data_in = ce88fff8 (hex), data_out = 10011011 
tests =          26, time = 270, data_in = cf7a4a3a (hex), data_out = 10011100 
tests =          27, time = 280, data_in = d064236c (hex), data_out = 10011101 
tests =          28, time = 290, data_in = d1470ef1 (hex), data_out = 10011110 
tests =          29, time = 300, data_in = d2238346 (hex), data_out = 10011111 
tests =          30, time = 310, data_in = d2f9eba8 (hex), data_out = 10100000 
tests =          31, time = 320, data_in = d3caa973 (hex), data_out = 10100001 
tests =          32, time = 330, data_in = d4961554 (hex), data_out = 10100010 
tests =          33, time = 340, data_in = d55c8048 (hex), data_out = 10100011 
tests =          34, time = 350, data_in = d61e347b (hex), data_out = 10100100 
tests =          35, time = 360, data_in = d6db7607 (hex), data_out = 10100101 
tests =          36, time = 370, data_in = d7948399 (hex), data_out = 10100110 
tests =          37, time = 380, data_in = d8499706 (hex), data_out = 10100111 
tests =          38, time = 390, data_in = d8fae5c2 (hex), data_out = 10101000 
tests =          39, time = 400, data_in = d9a8a153 (hex), data_out = 10101001 
tests =          40, time = 410, data_in = da52f7b1 (hex), data_out = 10101010 
tests =          41, time = 420, data_in = dafa139d (hex), data_out = 10101011 
tests =          42, time = 430, data_in = db9e1cea (hex), data_out = 10101100 
tests =          43, time = 440, data_in = dc3f38c3 (hex), data_out = 10101101 
tests =          44, time = 450, data_in = dcdd89e8 (hex), data_out = 10101110 
tests =          45, time = 460, data_in = dd7930de (hex), data_out = 10101111 
tests =          46, time = 470, data_in = de124c25 (hex), data_out = 10110000 
tests =          47, time = 480, data_in = dea8f861 (hex), data_out = 10110001 
tests =          48, time = 490, data_in = df3d507e (hex), data_out = 10110010 
tests =          49, time = 500, data_in = dfcf6dd7 (hex), data_out = 10110011 
tests =          50, time = 510, data_in = e05f6852 (hex), data_out = 10110100 
tests =          51, time = 520, data_in = e0ed567f (hex), data_out = 10110101 
tests =          52, time = 530, data_in = e1794daf (hex), data_out = 10110110 
tests =          53, time = 540, data_in = e203620f (hex), data_out = 10110111 
tests =          54, time = 550, data_in = e28ba6ba (hex), data_out = 10111000 
tests =          55, time = 560, data_in = e3122dce (hex), data_out = 10111001 
tests =          56, time = 570, data_in = e397087e (hex), data_out = 10111010 
tests =          57, time = 580, data_in = e41a4721 (hex), data_out = 10111011 
tests =          58, time = 590, data_in = e49bf942 (hex), data_out = 10111100 
tests =          59, time = 600, data_in = e51c2dad (hex), data_out = 10111101 
tests =          60, time = 610, data_in = e59af27c (hex), data_out = 10111110 
tests =          61, time = 620, data_in = e6185523 (hex), data_out = 10111111 
tests =          62, time = 630, data_in = e6946278 (hex), data_out = 11000000 
tests =          63, time = 640, data_in = e70f26c2 (hex), data_out = 11000001 
tests =          64, time = 650, data_in = e788adbb (hex), data_out = 11000010 
tests =          65, time = 660, data_in = e80102a0 (hex), data_out = 11000011 
tests =          66, time = 670, data_in = e8783032 (hex), data_out = 11000100 
tests =          67, time = 680, data_in = e8ee40c1 (hex), data_out = 11000101 
tests =          68, time = 690, data_in = e9633e33 (hex), data_out = 11000110 
tests =          69, time = 700, data_in = e9d73209 (hex), data_out = 11000111 
tests =          70, time = 710, data_in = ea4a2562 (hex), data_out = 11001000 
tests =          71, time = 720, data_in = eabc2109 (hex), data_out = 11001001 
tests =          72, time = 730, data_in = eb2d2d6e (hex), data_out = 11001010 
tests =          73, time = 740, data_in = eb9d52b5 (hex), data_out = 11001011 
tests =          74, time = 750, data_in = ec0c98b6 (hex), data_out = 11001100 
tests =          75, time = 760, data_in = ec7b0701 (hex), data_out = 11001101 
tests =          76, time = 770, data_in = ece8a4e1 (hex), data_out = 11001110 
tests =          77, time = 780, data_in = ed557964 (hex), data_out = 11001111 
tests =          78, time = 790, data_in = edc18b59 (hex), data_out = 11010000 
tests =          79, time = 800, data_in = ee2ce157 (hex), data_out = 11010001 
tests =          80, time = 810, data_in = ee9781bd (hex), data_out = 11010010 
tests =          81, time = 820, data_in = ef0172b7 (hex), data_out = 11010011 
tests =          82, time = 830, data_in = ef6aba42 (hex), data_out = 11010100 
tests =          83, time = 840, data_in = efd35e29 (hex), data_out = 11010101 
tests =          84, time = 850, data_in = f03b640d (hex), data_out = 11010110 
tests =          85, time = 860, data_in = f0a2d166 (hex), data_out = 11010111 
tests =          86, time = 870, data_in = f109ab82 (hex), data_out = 11011000 
tests =          87, time = 880, data_in = f16ff78a (hex), data_out = 11011001 
tests =          88, time = 890, data_in = f1d5ba83 (hex), data_out = 11011010 
tests =          89, time = 900, data_in = f23af952 (hex), data_out = 11011011 
tests =          90, time = 910, data_in = f29fb8b7 (hex), data_out = 11011100 
tests =          91, time = 920, data_in = f303fd58 (hex), data_out = 11011101 
tests =          92, time = 930, data_in = f367cbba (hex), data_out = 11011110 
tests =          93, time = 940, data_in = f3cb2849 (hex), data_out = 11011111 
tests =          94, time = 950, data_in = f42e1755 (hex), data_out = 11100000 
tests =          95, time = 960, data_in = f4909d15 (hex), data_out = 11100001 
tests =          96, time = 970, data_in = f4f2bda7 (hex), data_out = 11100010 
tests =          97, time = 980, data_in = f5547d16 (hex), data_out = 11100011 
tests =          98, time = 990, data_in = f5b5df53 (hex), data_out = 11100100 
tests =          99, time = 1000, data_in = f616e83e (hex), data_out = 11100101 
tests =         100, time = 1010, data_in = f6779ba2 (hex), data_out = 11100110 
tests =         101, time = 1020, data_in = f6d7fd37 (hex), data_out = 11100111 
tests =         102, time = 1030, data_in = f73810a6 (hex), data_out = 11101000 
tests =         103, time = 1040, data_in = f797d986 (hex), data_out = 11101001 
tests =         104, time = 1050, data_in = f7f75b5d (hex), data_out = 11101010 
tests =         105, time = 1060, data_in = f85699a6 (hex), data_out = 11101011 
tests =         106, time = 1070, data_in = f8b597ca (hex), data_out = 11101100 
tests =         107, time = 1080, data_in = f9145929 (hex), data_out = 11101101 
tests =         108, time = 1090, data_in = f972e114 (hex), data_out = 11101110 
tests =         109, time = 1100, data_in = f9d132d0 (hex), data_out = 11101111 
tests =         110, time = 1110, data_in = fa2f519b (hex), data_out = 11110000 
tests =         111, time = 1120, data_in = fa8d40a4 (hex), data_out = 11110001 
tests =         112, time = 1130, data_in = faeb0314 (hex), data_out = 11110010 
tests =         113, time = 1140, data_in = fb489c0a (hex), data_out = 11110011 
tests =         114, time = 1150, data_in = fba60e9e (hex), data_out = 11110100 
tests =         115, time = 1160, data_in = fc035ddf (hex), data_out = 11110101 
tests =         116, time = 1170, data_in = fc608cd6 (hex), data_out = 11110110 
tests =         117, time = 1180, data_in = fcbd9e86 (hex), data_out = 11110111 
tests =         118, time = 1190, data_in = fd1a95ec (hex), data_out = 11111000 
tests =         119, time = 1200, data_in = fd777601 (hex), data_out = 11111001 
tests =         120, time = 1210, data_in = fdd441b8 (hex), data_out = 11111010 
tests =         121, time = 1220, data_in = fe30fc01 (hex), data_out = 11111011 
tests =         122, time = 1230, data_in = fe8da7c9 (hex), data_out = 11111100 
tests =         123, time = 1240, data_in = feea47fa (hex), data_out = 11111101 
tests =         124, time = 1250, data_in = ff46df7b (hex), data_out = 11111110 
tests =         125, time = 1260, data_in = ffa37133 (hex), data_out = 11111111 
tests =         126, time = 1270, data_in = 00000006 (hex), data_out = 00000000 
tests =         127, time = 1280, data_in = 005c8ed7 (hex), data_out = 00000001 
tests =         128, time = 1290, data_in = 00b9208f (hex), data_out = 00000010 
tests =         129, time = 1300, data_in = 0115b810 (hex), data_out = 00000011 
tests =         130, time = 1310, data_in = 01725841 (hex), data_out = 00000100 
tests =         131, time = 1320, data_in = 01cf0409 (hex), data_out = 00000101 
tests =         132, time = 1330, data_in = 022bbe52 (hex), data_out = 00000110 
tests =         133, time = 1340, data_in = 02888a09 (hex), data_out = 00000111 
tests =         134, time = 1350, data_in = 02e56a1e (hex), data_out = 00001000 
tests =         135, time = 1360, data_in = 03426184 (hex), data_out = 00001001 
tests =         136, time = 1370, data_in = 039f7334 (hex), data_out = 00001010 
tests =         137, time = 1380, data_in = 03fca22b (hex), data_out = 00001011 
tests =         138, time = 1390, data_in = 0459f16c (hex), data_out = 00001100 
tests =         139, time = 1400, data_in = 04b76400 (hex), data_out = 00001101 
tests =         140, time = 1410, data_in = 0514fcf6 (hex), data_out = 00001110 
tests =         141, time = 1420, data_in = 0572bf66 (hex), data_out = 00001111 
tests =         142, time = 1430, data_in = 05d0ae6f (hex), data_out = 00010000 
tests =         143, time = 1440, data_in = 062ecd3a (hex), data_out = 00010001 
tests =         144, time = 1450, data_in = 068d1ef6 (hex), data_out = 00010010 
tests =         145, time = 1460, data_in = 06eba6e1 (hex), data_out = 00010011 
tests =         146, time = 1470, data_in = 074a6840 (hex), data_out = 00010100 
tests =         147, time = 1480, data_in = 07a96664 (hex), data_out = 00010101 
tests =         148, time = 1490, data_in = 0808a4ad (hex), data_out = 00010110 
tests =         149, time = 1500, data_in = 08682684 (hex), data_out = 00010111 
tests =         150, time = 1510, data_in = 08c7ef64 (hex), data_out = 00011000 
tests =         151, time = 1520, data_in = 092802d3 (hex), data_out = 00011001 
tests =         152, time = 1530, data_in = 09886468 (hex), data_out = 00011010 
tests =         153, time = 1540, data_in = 09e917cc (hex), data_out = 00011011 
tests =         154, time = 1550, data_in = 0a4a20b7 (hex), data_out = 00011100 
tests =         155, time = 1560, data_in = 0aab82f4 (hex), data_out = 00011101 
tests =         156, time = 1570, data_in = 0b0d4263 (hex), data_out = 00011110 
tests =         157, time = 1580, data_in = 0b6f62f5 (hex), data_out = 00011111 
tests =         158, time = 1590, data_in = 0bd1e8b5 (hex), data_out = 00100000 
tests =         159, time = 1600, data_in = 0c34d7c1 (hex), data_out = 00100001 
tests =         160, time = 1610, data_in = 0c983450 (hex), data_out = 00100010 
tests =         161, time = 1620, data_in = 0cfc02b2 (hex), data_out = 00100011 
tests =         162, time = 1630, data_in = 0d604753 (hex), data_out = 00100100 
tests =         163, time = 1640, data_in = 0dc506b8 (hex), data_out = 00100101 
tests =         164, time = 1650, data_in = 0e2a4587 (hex), data_out = 00100110 
tests =         165, time = 1660, data_in = 0e900880 (hex), data_out = 00100111 
tests =         166, time = 1670, data_in = 0ef65488 (hex), data_out = 00101000 
tests =         167, time = 1680, data_in = 0f5d2ea4 (hex), data_out = 00101001 
tests =         168, time = 1690, data_in = 0fc49bfd (hex), data_out = 00101010 
tests =         169, time = 1700, data_in = 102ca1e1 (hex), data_out = 00101011 
tests =         170, time = 1710, data_in = 109545c8 (hex), data_out = 00101100 
tests =         171, time = 1720, data_in = 10fe8d53 (hex), data_out = 00101101 
tests =         172, time = 1730, data_in = 11687e4d (hex), data_out = 00101110 
tests =         173, time = 1740, data_in = 11d31eb3 (hex), data_out = 00101111 
tests =         174, time = 1750, data_in = 123e74b1 (hex), data_out = 00110000 
tests =         175, time = 1760, data_in = 12aa86a6 (hex), data_out = 00110001 
tests =         176, time = 1770, data_in = 13175b29 (hex), data_out = 00110010 
tests =         177, time = 1780, data_in = 1384f909 (hex), data_out = 00110011 
tests =         178, time = 1790, data_in = 13f36754 (hex), data_out = 00110100 
tests =         179, time = 1800, data_in = 1462ad55 (hex), data_out = 00110101 
tests =         180, time = 1810, data_in = 14d2d29c (hex), data_out = 00110110 
tests =         181, time = 1820, data_in = 1543df01 (hex), data_out = 00110111 
tests =         182, time = 1830, data_in = 15b5daa8 (hex), data_out = 00111000 
tests =         183, time = 1840, data_in = 1628ce01 (hex), data_out = 00111001 
tests =         184, time = 1850, data_in = 169cc1d7 (hex), data_out = 00111010 
tests =         185, time = 1860, data_in = 1711bf49 (hex), data_out = 00111011 
tests =         186, time = 1870, data_in = 1787cfd8 (hex), data_out = 00111100 
tests =         187, time = 1880, data_in = 17fefd6a (hex), data_out = 00111101 
tests =         188, time = 1890, data_in = 1877524f (hex), data_out = 00111110 
tests =         189, time = 1900, data_in = 18f0d948 (hex), data_out = 00111111 
tests =         190, time = 1910, data_in = 196b9d92 (hex), data_out = 01000000 
tests =         191, time = 1920, data_in = 19e7aae7 (hex), data_out = 01000001 
tests =         192, time = 1930, data_in = 1a650d8e (hex), data_out = 01000010 
tests =         193, time = 1940, data_in = 1ae3d25d (hex), data_out = 01000011 
tests =         194, time = 1950, data_in = 1b6406c8 (hex), data_out = 01000100 
tests =         195, time = 1960, data_in = 1be5b8e9 (hex), data_out = 01000101 
tests =         196, time = 1970, data_in = 1c68f78c (hex), data_out = 01000110 
tests =         197, time = 1980, data_in = 1cedd23c (hex), data_out = 01000111 
tests =         198, time = 1990, data_in = 1d745950 (hex), data_out = 01001000 
tests =         199, time = 2000, data_in = 1dfc9dfb (hex), data_out = 01001001 
tests =         200, time = 2010, data_in = 1e86b25b (hex), data_out = 01001010 
tests =         201, time = 2020, data_in = 1f12a98b (hex), data_out = 01001011 
tests =         202, time = 2030, data_in = 1fa097b8 (hex), data_out = 01001100 
tests =         203, time = 2040, data_in = 20309233 (hex), data_out = 01001101 
tests =         204, time = 2050, data_in = 20c2af8c (hex), data_out = 01001110 
tests =         205, time = 2060, data_in = 215707a9 (hex), data_out = 01001111 
tests =         206, time = 2070, data_in = 21edb3e5 (hex), data_out = 01010000 
tests =         207, time = 2080, data_in = 2286cf2c (hex), data_out = 01010001 
tests =         208, time = 2090, data_in = 23227622 (hex), data_out = 01010010 
tests =         209, time = 2100, data_in = 23c0c747 (hex), data_out = 01010011 
tests =         210, time = 2110, data_in = 2461e320 (hex), data_out = 01010100 
tests =         211, time = 2120, data_in = 2505ec6d (hex), data_out = 01010101 
tests =         212, time = 2130, data_in = 25ad0859 (hex), data_out = 01010110 
tests =         213, time = 2140, data_in = 26575eb7 (hex), data_out = 01010111 
tests =         214, time = 2150, data_in = 27051a48 (hex), data_out = 01011000 
tests =         215, time = 2160, data_in = 27b66904 (hex), data_out = 01011001 
tests =         216, time = 2170, data_in = 286b7c71 (hex), data_out = 01011010 
tests =         217, time = 2180, data_in = 29248a03 (hex), data_out = 01011011 
tests =         218, time = 2190, data_in = 29e1cb8f (hex), data_out = 01011100 
tests =         219, time = 2200, data_in = 2aa37fc2 (hex), data_out = 01011101 
tests =         220, time = 2210, data_in = 2b69eab6 (hex), data_out = 01011110 
tests =         221, time = 2220, data_in = 2c355697 (hex), data_out = 01011111 
tests =         222, time = 2230, data_in = 2d061462 (hex), data_out = 01100000 
tests =         223, time = 2240, data_in = 2ddc7cc4 (hex), data_out = 01100001 
tests =         224, time = 2250, data_in = 2eb8f119 (hex), data_out = 01100010 
tests =         225, time = 2260, data_in = 2f9bdc9e (hex), data_out = 01100011 
tests =         226, time = 2270, data_in = 3085b5d0 (hex), data_out = 01100100 
tests =         227, time = 2280, data_in = 31770012 (hex), data_out = 01100101 
tests =         228, time = 2290, data_in = 32704da0 (hex), data_out = 01100110 
tests =         229, time = 2300, data_in = 337241df (hex), data_out = 01100111 
tests =         230, time = 2310, data_in = 347d9431 (hex), data_out = 01101000 
tests =         231, time = 2320, data_in = 35931356 (hex), data_out = 01101001 
tests =         232, time = 2330, data_in = 36b3a99b (hex), data_out = 01101010 
tests =         233, time = 2340, data_in = 37e061f3 (hex), data_out = 01101011 
tests =         234, time = 2350, data_in = 391a6e5c (hex), data_out = 01101100 
tests =         235, time = 2360, data_in = 3a632fe2 (hex), data_out = 01101101 
tests =         236, time = 2370, data_in = 3bbc40cc (hex), data_out = 01101110 
tests =         237, time = 2380, data_in = 3d2781b1 (hex), data_out = 01101111 
tests =         238, time = 2390, data_in = 3ea72a8d (hex), data_out = 01110000 
tests =         239, time = 2400, data_in = 403de14e (hex), data_out = 01110001 
tests =         240, time = 2410, data_in = 41eed835 (hex), data_out = 01110010 
tests =         241, time = 2420, data_in = 43bdf774 (hex), data_out = 01110011 
tests =         242, time = 2430, data_in = 45b01782 (hex), data_out = 01110100 
tests =         243, time = 2440, data_in = 47cb54d2 (hex), data_out = 01110101 
tests =         244, time = 2450, data_in = 4a178b86 (hex), data_out = 01110110 
tests =         245, time = 2460, data_in = 4c9f147a (hex), data_out = 01110111 
tests =         246, time = 2470, data_in = 4f6ff1f9 (hex), data_out = 01111000 
tests =         247, time = 2480, data_in = 529dc604 (hex), data_out = 01111001 
tests =         248, time = 2490, data_in = 56454dd6 (hex), data_out = 01111010 
tests =         249, time = 2500, data_in = 5a93100e (hex), data_out = 01111011 
tests =         250, time = 2510, data_in = 5fd19313 (hex), data_out = 01111100 
tests =         251, time = 2520, data_in = 668c5afb (hex), data_out = 01111101 
tests =         252, time = 2530, data_in = 6ffbe2d3 (hex), data_out = 01111110 
