LSTM_accelerator.sim/tb_lstm_unit/behav/xsim/simulate.log
Time resolution is 1 ps
####################################

At time = 0, enable_input = x, finish_input = 1, enable_recurrent = x, finish_recurrent = 1
At time = 0, enable_cell = x, finish_cell = 1, enable_output = x, finish_output = 1 

----------------------------------
At time = 2000, init_n = x
At time = 2000, enable_input = x, finish_input = 1, enable_recurrent = x, finish_recurrent = 1
At time = 2000, enable_cell = x, finish_cell = 1, enable_output = x, finish_output = 1

At time = 2000, output_input_1 = 0, output_forget_1 = 0, output_cell_update_1 = 0, output_output_1 = 0

At time = 2000, before_output_input_3 = 0, before_output_forget_3 = 0, before_output_cell_update_3 = 0, before_output_output_3 = xxxxxxxx, sigmoid = 7f, tanh = 0

At time = 2000, output_cell = 0, tanh_output_cell = 7f

At time = 2000, hidden_state = xx, prev_ht = xx
Time =                 5000
----------------------------------
At time = 7000, init_n = 0
At time = 7000, enable_input = 0, finish_input = 1, enable_recurrent = 0, finish_recurrent = 1
At time = 7000, enable_cell = 0, finish_cell = 1, enable_output = 0, finish_output = 1

At time = 7000, output_input_1 = b, output_forget_1 = c, output_cell_update_1 = d, output_output_1 = e

At time = 7000, before_output_input_3 = 0, before_output_forget_3 = 0, before_output_cell_update_3 = 0, before_output_output_3 = xxxxxxxx, sigmoid = 7f, tanh = 0

At time = 7000, output_cell = 0, tanh_output_cell = 7f

At time = 7000, hidden_state = 0, prev_ht = 0
----------------------------------
At time = 12000, init_n = 0
At time = 12000, enable_input = 0, finish_input = 1, enable_recurrent = 0, finish_recurrent = 1
At time = 12000, enable_cell = 0, finish_cell = 1, enable_output = 0, finish_output = 1

At time = 12000, output_input_1 = b, output_forget_1 = c, output_cell_update_1 = d, output_output_1 = e

At time = 12000, before_output_input_3 = 0, before_output_forget_3 = 0, before_output_cell_update_3 = 0, before_output_output_3 = xxxxxxxx, sigmoid = 7f, tanh = 0

At time = 12000, output_cell = 0, tanh_output_cell = 7f

At time = 12000, hidden_state = 0, prev_ht = 0
####################################

At time = 16000, enable_input = 1, finish_input = 1, enable_recurrent = 0, finish_recurrent = 1
At time = 16000, enable_cell = 0, finish_cell = 1, enable_output = 0, finish_output = 1 


At time = 16000, output_input_1 = 0, output_forget_1 = 0, output_cell_update_1 = 0, output_output_1 = 0
----------------------------------
At time = 17000, init_n = 1
At time = 17000, enable_input = 1, finish_input = 1, enable_recurrent = 0, finish_recurrent = 1
At time = 17000, enable_cell = 0, finish_cell = 1, enable_output = 0, finish_output = 1

At time = 17000, output_input_1 = 0, output_forget_1 = 0, output_cell_update_1 = 0, output_output_1 = 0

At time = 17000, before_output_input_3 = 0, before_output_forget_3 = 0, before_output_cell_update_3 = 0, before_output_output_3 = xxxxxxxx, sigmoid = 7f, tanh = 0

At time = 17000, output_cell = 0, tanh_output_cell = 7f

At time = 17000, hidden_state = 0, prev_ht = 0
----------------------------------
At time = 22000, init_n = 1
At time = 22000, enable_input = 1, finish_input = 1, enable_recurrent = 0, finish_recurrent = 1
At time = 22000, enable_cell = 0, finish_cell = 1, enable_output = 0, finish_output = 1

At time = 22000, output_input_1 = 0, output_forget_1 = 0, output_cell_update_1 = 0, output_output_1 = 0

At time = 22000, before_output_input_3 = 0, before_output_forget_3 = 0, before_output_cell_update_3 = 0, before_output_output_3 = xxxxxxxx, sigmoid = 7f, tanh = 0

At time = 22000, output_cell = 0, tanh_output_cell = 7f

At time = 22000, hidden_state = 0, prev_ht = 0
####################################

At time = 26000, enable_input = 0, finish_input = 1, enable_recurrent = 1, finish_recurrent = 1
At time = 26000, enable_cell = 0, finish_cell = 1, enable_output = 0, finish_output = 1 


At time = 26000, before_output_input_3 = 50, before_output_forget_3 = 50, before_output_cell_update_3 = 50, before_output_output_3 = ae, sigmoid = 7f, tanh = 0
----------------------------------
At time = 27000, init_n = 1
At time = 27000, enable_input = 0, finish_input = 1, enable_recurrent = 1, finish_recurrent = 1
At time = 27000, enable_cell = 0, finish_cell = 1, enable_output = 0, finish_output = 1

At time = 27000, output_input_1 = 5b, output_forget_1 = 5c, output_cell_update_1 = 5d, output_output_1 = 5e

At time = 27000, before_output_input_3 = 50, before_output_forget_3 = 50, before_output_cell_update_3 = 50, before_output_output_3 = ae, sigmoid = 7f, tanh = 0

At time = 27000, output_cell = 0, tanh_output_cell = 7f

At time = 27000, hidden_state = 0, prev_ht = 0
----------------------------------
At time = 32000, init_n = 1
At time = 32000, enable_input = 0, finish_input = 1, enable_recurrent = 1, finish_recurrent = 1
At time = 32000, enable_cell = 0, finish_cell = 1, enable_output = 0, finish_output = 1

At time = 32000, output_input_1 = 5b, output_forget_1 = 5c, output_cell_update_1 = 5d, output_output_1 = 5e

At time = 32000, before_output_input_3 = 50, before_output_forget_3 = 50, before_output_cell_update_3 = 50, before_output_output_3 = ae, sigmoid = 7f, tanh = 0

At time = 32000, output_cell = 0, tanh_output_cell = 7f

At time = 32000, hidden_state = 0, prev_ht = 0
####################################

At time = 36000, enable_input = 0, finish_input = 1, enable_recurrent = 0, finish_recurrent = 1
At time = 36000, enable_cell = 1, finish_cell = 1, enable_output = 0, finish_output = 1 


At time = 36000, output_cell = 0, tanh_output_cell = 7f
----------------------------------
At time = 37000, init_n = 1
At time = 37000, enable_input = 0, finish_input = 1, enable_recurrent = 0, finish_recurrent = 1
At time = 37000, enable_cell = 1, finish_cell = 1, enable_output = 0, finish_output = 1

At time = 37000, output_input_1 = 0, output_forget_1 = 0, output_cell_update_1 = 0, output_output_1 = 0

At time = 37000, before_output_input_3 = ab, before_output_forget_3 = ac, before_output_cell_update_3 = ad, before_output_output_3 = ae, sigmoid = 7f, tanh = 0

At time = 37000, output_cell = 0, tanh_output_cell = 7f

At time = 37000, hidden_state = 0, prev_ht = 0
----------------------------------
At time = 42000, init_n = 1
At time = 42000, enable_input = 0, finish_input = 1, enable_recurrent = 0, finish_recurrent = 1
At time = 42000, enable_cell = 1, finish_cell = 1, enable_output = 0, finish_output = 1

At time = 42000, output_input_1 = 0, output_forget_1 = 0, output_cell_update_1 = 0, output_output_1 = 0

At time = 42000, before_output_input_3 = ab, before_output_forget_3 = ac, before_output_cell_update_3 = ad, before_output_output_3 = ae, sigmoid = 7f, tanh = 0

At time = 42000, output_cell = 0, tanh_output_cell = 7f

At time = 42000, hidden_state = 0, prev_ht = 0
Time =                45000
####################################

At time = 46000, enable_input = 0, finish_input = 1, enable_recurrent = 0, finish_recurrent = 1
At time = 46000, enable_cell = 0, finish_cell = 1, enable_output = 1, finish_output = 1 


At time = 46000, hidden_state = 2fa, prev_ht = 0
----------------------------------
At time = 47000, init_n = 1
At time = 47000, enable_input = 0, finish_input = 1, enable_recurrent = 0, finish_recurrent = 1
At time = 47000, enable_cell = 0, finish_cell = 1, enable_output = 1, finish_output = 1

At time = 47000, output_input_1 = 0, output_forget_1 = 0, output_cell_update_1 = 0, output_output_1 = 0

At time = 47000, before_output_input_3 = 0, before_output_forget_3 = 0, before_output_cell_update_3 = 0, before_output_output_3 = ae, sigmoid = 7f, tanh = 0

At time = 47000, output_cell = 4f6, tanh_output_cell = 6

At time = 47000, hidden_state = 0, prev_ht = 0
----------------------------------
At time = 52000, init_n = 1
At time = 52000, enable_input = 0, finish_input = 1, enable_recurrent = 0, finish_recurrent = 1
At time = 52000, enable_cell = 0, finish_cell = 1, enable_output = 1, finish_output = 1

At time = 52000, output_input_1 = 0, output_forget_1 = 0, output_cell_update_1 = 0, output_output_1 = 0

At time = 52000, before_output_input_3 = 0, before_output_forget_3 = 0, before_output_cell_update_3 = 0, before_output_output_3 = ae, sigmoid = 7f, tanh = 0
