LSTM_accelerator.sim/sim_sigmoid/behav/xsim/simulate.log
Time resolution is 1 ps
tests =           0, time = 0, data_in = xxxxxxxx (hex), data_out = xxxxxxxx 
tests =           1, time = 10, data_in = 81922537 (hex), data_out = 00000001 
tests =           2, time = 20, data_in = 9163fffe (hex), data_out = 00000010 
tests =           3, time = 30, data_in = 9ab5ebf3 (hex), data_out = 00000011 
tests =           4, time = 40, data_in = a15b95ef (hex), data_out = 00000100 
tests =           5, time = 50, data_in = a689a465 (hex), data_out = 00000101 
tests =           6, time = 60, data_in = aac9e593 (hex), data_out = 00000110 
tests =           7, time = 70, data_in = ae65f605 (hex), data_out = 00000111 
tests =           8, time = 80, data_in = b189d09d (hex), data_out = 00001000 
tests =           9, time = 90, data_in = b451d866 (hex), data_out = 00001001 
tests =          10, time = 100, data_in = b6d171c5 (hex), data_out = 00001010 
tests =          11, time = 110, data_in = b916730d (hex), data_out = 00001011 
tests =          12, time = 120, data_in = bb2b14a3 (hex), data_out = 00001100 
tests =          13, time = 130, data_in = bd1719fe (hex), data_out = 00001101 
tests =          14, time = 140, data_in = bee08c64 (hex), data_out = 00001110 
tests =          15, time = 150, data_in = c08c3516 (hex), data_out = 00001111 
tests =          16, time = 160, data_in = c21df005 (hex), data_out = 00010000 
tests =          17, time = 170, data_in = c398e569 (hex), data_out = 00010001 
tests =          18, time = 180, data_in = c4ffb2e1 (hex), data_out = 00010010 
tests =          19, time = 190, data_in = c6548972 (hex), data_out = 00010011 
tests =          20, time = 200, data_in = c79943d0 (hex), data_out = 00010100 
tests =          21, time = 210, data_in = c8cf773a (hex), data_out = 00010101 
tests =          22, time = 220, data_in = c9f88067 (hex), data_out = 00010110 
tests =          23, time = 230, data_in = cb158d95 (hex), data_out = 00010111 
tests =          24, time = 240, data_in = cc27a673 (hex), data_out = 00011000 
tests =          25, time = 250, data_in = cd2fb26d (hex), data_out = 00011001 
tests =          26, time = 260, data_in = ce2e7dbb (hex), data_out = 00011010 
tests =          27, time = 270, data_in = cf24bd7f (hex), data_out = 00011011 
tests =          28, time = 280, data_in = d013131f (hex), data_out = 00011100 
tests =          29, time = 290, data_in = d0fa0f09 (hex), data_out = 00011101 
tests =          30, time = 300, data_in = d1da3306 (hex), data_out = 00011110 
tests =          31, time = 310, data_in = d2b3f41f (hex), data_out = 00011111 
tests =          32, time = 320, data_in = d387bc40 (hex), data_out = 00100000 
tests =          33, time = 330, data_in = d455eb94 (hex), data_out = 00100001 
tests =          34, time = 340, data_in = d51ed9b0 (hex), data_out = 00100010 
tests =          35, time = 350, data_in = d5e2d695 (hex), data_out = 00100011 
tests =          36, time = 360, data_in = d6a22b85 (hex), data_out = 00100100 
tests =          37, time = 370, data_in = d75d1bc5 (hex), data_out = 00100101 
tests =          38, time = 380, data_in = d813e53e (hex), data_out = 00100110 
tests =          39, time = 390, data_in = d8c6c10d (hex), data_out = 00100111 
tests =          40, time = 400, data_in = d975e401 (hex), data_out = 00101000 
tests =          41, time = 410, data_in = da217f03 (hex), data_out = 00101001 
tests =          42, time = 420, data_in = dac9bf7b (hex), data_out = 00101010 
tests =          43, time = 430, data_in = db6ecfa4 (hex), data_out = 00101011 
tests =          44, time = 440, data_in = dc10d6d5 (hex), data_out = 00101100 
tests =          45, time = 450, data_in = dcaff9c3 (hex), data_out = 00101101 
tests =          46, time = 460, data_in = dd4c5ac1 (hex), data_out = 00101110 
tests =          47, time = 470, data_in = dde619ef (hex), data_out = 00101111 
tests =          48, time = 480, data_in = de7d556e (hex), data_out = 00110000 
tests =          49, time = 490, data_in = df122985 (hex), data_out = 00110001 
tests =          50, time = 500, data_in = dfa4b0ce (hex), data_out = 00110010 
tests =          51, time = 510, data_in = e0350454 (hex), data_out = 00110011 
tests =          52, time = 520, data_in = e0c33bb3 (hex), data_out = 00110100 
tests =          53, time = 530, data_in = e14f6d32 (hex), data_out = 00110101 
tests =          54, time = 540, data_in = e1d9ade1 (hex), data_out = 00110110 
tests =          55, time = 550, data_in = e26211ac (hex), data_out = 00110111 
tests =          56, time = 560, data_in = e2e8ab74 (hex), data_out = 00111000 
tests =          57, time = 570, data_in = e36d8d1d (hex), data_out = 00111001 
tests =          58, time = 580, data_in = e3f0c7a3 (hex), data_out = 00111010 
tests =          59, time = 590, data_in = e4726b2c (hex), data_out = 00111011 
tests =          60, time = 600, data_in = e4f28712 (hex), data_out = 00111100 
tests =          61, time = 610, data_in = e57129f1 (hex), data_out = 00111101 
tests =          62, time = 620, data_in = e5ee61b9 (hex), data_out = 00111110 
tests =          63, time = 630, data_in = e66a3bb1 (hex), data_out = 00111111 
tests =          64, time = 640, data_in = e6e4c48a (hex), data_out = 01000000 
tests =          65, time = 650, data_in = e75e0861 (hex), data_out = 01000001 
tests =          66, time = 660, data_in = e7d612ce (hex), data_out = 01000010 
tests =          67, time = 670, data_in = e84ceee9 (hex), data_out = 01000011 
tests =          68, time = 680, data_in = e8c2a752 (hex), data_out = 01000100 
tests =          69, time = 690, data_in = e937463a (hex), data_out = 01000101 
tests =          70, time = 700, data_in = e9aad566 (hex), data_out = 01000110 
tests =          71, time = 710, data_in = ea1d5e39 (hex), data_out = 01000111 
tests =          72, time = 720, data_in = ea8ee9b8 (hex), data_out = 01001000 
tests =          73, time = 730, data_in = eaff808f (hex), data_out = 01001001 
tests =          74, time = 740, data_in = eb6f2b17 (hex), data_out = 01001010 
tests =          75, time = 750, data_in = ebddf158 (hex), data_out = 01001011 
tests =          76, time = 760, data_in = ec4bdb13 (hex), data_out = 01001100 
tests =          77, time = 770, data_in = ecb8efbe (hex), data_out = 01001101 
tests =          78, time = 780, data_in = ed253690 (hex), data_out = 01001110 
tests =          79, time = 790, data_in = ed90b680 (hex), data_out = 01001111 
tests =          80, time = 800, data_in = edfb7646 (hex), data_out = 01010000 
tests =          81, time = 810, data_in = ee657c66 (hex), data_out = 01010001 
tests =          82, time = 820, data_in = eececf2b (hex), data_out = 01010010 
tests =          83, time = 830, data_in = ef3774ae (hex), data_out = 01010011 
tests =          84, time = 840, data_in = ef9f72d8 (hex), data_out = 01010100 
tests =          85, time = 850, data_in = f006cf62 (hex), data_out = 01010101 
tests =          86, time = 860, data_in = f06d8fdd (hex), data_out = 01010110 
tests =          87, time = 870, data_in = f0d3b9ae (hex), data_out = 01010111 
tests =          88, time = 880, data_in = f1395214 (hex), data_out = 01011000 
tests =          89, time = 890, data_in = f19e5e27 (hex), data_out = 01011001 
tests =          90, time = 900, data_in = f202e2dc (hex), data_out = 01011010 
tests =          91, time = 910, data_in = f266e509 (hex), data_out = 01011011 
tests =          92, time = 920, data_in = f2ca6960 (hex), data_out = 01011100 
tests =          93, time = 930, data_in = f32d7477 (hex), data_out = 01011101 
tests =          94, time = 940, data_in = f3900ac6 (hex), data_out = 01011110 
tests =          95, time = 950, data_in = f3f230ab (hex), data_out = 01011111 
tests =          96, time = 960, data_in = f453ea68 (hex), data_out = 01100000 
tests =          97, time = 970, data_in = f4b53c26 (hex), data_out = 01100001 
tests =          98, time = 980, data_in = f51629fa (hex), data_out = 01100010 
tests =          99, time = 990, data_in = f576b7de (hex), data_out = 01100011 
tests =         100, time = 1000, data_in = f5d6e9b9 (hex), data_out = 01100100 
tests =         101, time = 1010, data_in = f636c35e (hex), data_out = 01100101 
tests =         102, time = 1020, data_in = f696488c (hex), data_out = 01100110 
tests =         103, time = 1030, data_in = f6f57cf1 (hex), data_out = 01100111 
tests =         104, time = 1040, data_in = f7546429 (hex), data_out = 01101000 
tests =         105, time = 1050, data_in = f7b301c0 (hex), data_out = 01101001 
tests =         106, time = 1060, data_in = f8115932 (hex), data_out = 01101010 
tests =         107, time = 1070, data_in = f86f6dee (hex), data_out = 01101011 
tests =         108, time = 1080, data_in = f8cd4353 (hex), data_out = 01101100 
tests =         109, time = 1090, data_in = f92adcb7 (hex), data_out = 01101101 
tests =         110, time = 1100, data_in = f9883d5f (hex), data_out = 01101110 
tests =         111, time = 1110, data_in = f9e56889 (hex), data_out = 01101111 
tests =         112, time = 1120, data_in = fa426164 (hex), data_out = 01110000 
tests =         113, time = 1130, data_in = fa9f2b1a (hex), data_out = 01110001 
tests =         114, time = 1140, data_in = fafbc8c8 (hex), data_out = 01110010 
tests =         115, time = 1150, data_in = fb583d84 (hex), data_out = 01110011 
tests =         116, time = 1160, data_in = fbb48c5b (hex), data_out = 01110100 
tests =         117, time = 1170, data_in = fc10b854 (hex), data_out = 01110101 
tests =         118, time = 1180, data_in = fc6cc46e (hex), data_out = 01110110 
tests =         119, time = 1190, data_in = fcc8b3a2 (hex), data_out = 01110111 
tests =         120, time = 1200, data_in = fd2488e6 (hex), data_out = 01111000 
tests =         121, time = 1210, data_in = fd804727 (hex), data_out = 01111001 
tests =         122, time = 1220, data_in = fddbf150 (hex), data_out = 01111010 
tests =         123, time = 1230, data_in = fe378a49 (hex), data_out = 01111011 
tests =         124, time = 1240, data_in = fe9314f4 (hex), data_out = 01111100 
tests =         125, time = 1250, data_in = feee9433 (hex), data_out = 01111101 
tests =         126, time = 1260, data_in = ff4a0ae5 (hex), data_out = 01111110 
tests =         127, time = 1270, data_in = ffa57be6 (hex), data_out = 11111111 
tests =         128, time = 1280, data_in = 0000ea14 (hex), data_out = 10000000 
tests =         129, time = 1290, data_in = 005c5848 (hex), data_out = 10000001 
tests =         130, time = 1300, data_in = 00b7c95f (hex), data_out = 10000010 
tests =         131, time = 1310, data_in = 01134036 (hex), data_out = 10000011 
tests =         132, time = 1320, data_in = 016ebfa8 (hex), data_out = 10000100 
tests =         133, time = 1330, data_in = 01ca4a96 (hex), data_out = 10000101 
tests =         134, time = 1340, data_in = 0225e3df (hex), data_out = 10000110 
tests =         135, time = 1350, data_in = 02818e68 (hex), data_out = 10000111 
tests =         136, time = 1360, data_in = 02dd4d18 (hex), data_out = 10001000 
tests =         137, time = 1370, data_in = 033922d8 (hex), data_out = 10001001 
tests =         138, time = 1380, data_in = 0395129a (hex), data_out = 10001010 
tests =         139, time = 1390, data_in = 03f11f4f (hex), data_out = 10001011 
tests =         140, time = 1400, data_in = 044d4bf3 (hex), data_out = 10001100 
tests =         141, time = 1410, data_in = 04a99b84 (hex), data_out = 10001101 
tests =         142, time = 1420, data_in = 0506110a (hex), data_out = 10001110 
tests =         143, time = 1430, data_in = 0562af92 (hex), data_out = 10001111 
tests =         144, time = 1440, data_in = 05bf7a31 (hex), data_out = 10010000 
tests =         145, time = 1450, data_in = 061c7406 (hex), data_out = 10010001 
tests =         146, time = 1460, data_in = 0679a03a (hex), data_out = 10010010 
tests =         147, time = 1470, data_in = 06d701fc (hex), data_out = 10010011 
tests =         148, time = 1480, data_in = 07349c8b (hex), data_out = 10010100 
tests =         149, time = 1490, data_in = 0792732c (hex), data_out = 10010101 
tests =         150, time = 1500, data_in = 07f08935 (hex), data_out = 10010110 
tests =         151, time = 1510, data_in = 084ee206 (hex), data_out = 10010111 
tests =         152, time = 1520, data_in = 08ad810d (hex), data_out = 10011000 
tests =         153, time = 1530, data_in = 090c69c7 (hex), data_out = 10011001 
tests =         154, time = 1540, data_in = 096b9fc1 (hex), data_out = 10011010 
tests =         155, time = 1550, data_in = 09cb2696 (hex), data_out = 10011011 
tests =         156, time = 1560, data_in = 0a2b01f5 (hex), data_out = 10011100 
tests =         157, time = 1570, data_in = 0a8b359e (hex), data_out = 10011101 
tests =         158, time = 1580, data_in = 0aebc563 (hex), data_out = 10011110 
tests =         159, time = 1590, data_in = 0b4cb52c (hex), data_out = 10011111 
tests =         160, time = 1600, data_in = 0bae08f5 (hex), data_out = 10100000 
tests =         161, time = 1610, data_in = 0c0fc4d1 (hex), data_out = 10100001 
tests =         162, time = 1620, data_in = 0c71ecea (hex), data_out = 10100010 
tests =         163, time = 1630, data_in = 0cd48584 (hex), data_out = 10100011 
tests =         164, time = 1640, data_in = 0d3792fd (hex), data_out = 10100100 
tests =         165, time = 1650, data_in = 0d9b19cd (hex), data_out = 10100101 
tests =         166, time = 1660, data_in = 0dff1e8a (hex), data_out = 10100110 
tests =         167, time = 1670, data_in = 0e63a5e8 (hex), data_out = 10100111 
tests =         168, time = 1680, data_in = 0ec8b4bd (hex), data_out = 10101000 
tests =         169, time = 1690, data_in = 0f2e4ffe (hex), data_out = 10101001 
tests =         170, time = 1700, data_in = 0f947cc5 (hex), data_out = 10101010 
tests =         171, time = 1710, data_in = 0ffb4051 (hex), data_out = 10101011 
tests =         172, time = 1720, data_in = 1062a00a (hex), data_out = 10101100 
tests =         173, time = 1730, data_in = 10caa17d (hex), data_out = 10101101 
tests =         174, time = 1740, data_in = 11334a69 (hex), data_out = 10101110 
tests =         175, time = 1750, data_in = 119ca0b4 (hex), data_out = 10101111 
tests =         176, time = 1760, data_in = 1206aa7b (hex), data_out = 10110000 
tests =         177, time = 1770, data_in = 12716e09 (hex), data_out = 10110001 
tests =         178, time = 1780, data_in = 12dcf1e1 (hex), data_out = 10110010 
tests =         179, time = 1790, data_in = 13493cc0 (hex), data_out = 10110011 
tests =         180, time = 1800, data_in = 13b6559c (hex), data_out = 10110100 
tests =         181, time = 1810, data_in = 142443ac (hex), data_out = 10110101 
tests =         182, time = 1820, data_in = 14930e6b (hex), data_out = 10110110 
tests =         183, time = 1830, data_in = 1502bd98 (hex), data_out = 10110111 
tests =         184, time = 1840, data_in = 1573593e (hex), data_out = 10111000 
tests =         185, time = 1850, data_in = 15e4e9b8 (hex), data_out = 10111001 
tests =         186, time = 1860, data_in = 165777b4 (hex), data_out = 10111010 
tests =         187, time = 1870, data_in = 16cb0c37 (hex), data_out = 10111011 
tests =         188, time = 1880, data_in = 173fb0a7 (hex), data_out = 10111100 
tests =         189, time = 1890, data_in = 17b56ecc (hex), data_out = 10111101 
tests =         190, time = 1900, data_in = 182c50d8 (hex), data_out = 10111110 
tests =         191, time = 1910, data_in = 18a4616e (hex), data_out = 10111111 
tests =         192, time = 1920, data_in = 191daba7 (hex), data_out = 11000000 
tests =         193, time = 1930, data_in = 19983b1f (hex), data_out = 11000001 
tests =         194, time = 1940, data_in = 1a141bf6 (hex), data_out = 11000010 
tests =         195, time = 1950, data_in = 1a915adf (hex), data_out = 11000011 
tests =         196, time = 1960, data_in = 1b100525 (hex), data_out = 11000100 
tests =         197, time = 1970, data_in = 1b9028ba (hex), data_out = 11000101 
tests =         198, time = 1980, data_in = 1c11d440 (hex), data_out = 11000110 
tests =         199, time = 1990, data_in = 1c951714 (hex), data_out = 11000111 
tests =         200, time = 2000, data_in = 1d1a015f (hex), data_out = 11001000 
tests =         201, time = 2010, data_in = 1da0a422 (hex), data_out = 11001001 
tests =         202, time = 2020, data_in = 1e291147 (hex), data_out = 11001010 
tests =         203, time = 2030, data_in = 1eb35bb3 (hex), data_out = 11001011 
tests =         204, time = 2040, data_in = 1f3f9757 (hex), data_out = 11001100 
tests =         205, time = 2050, data_in = 1fcdd94a (hex), data_out = 11001101 
tests =         206, time = 2060, data_in = 205e37da (hex), data_out = 11001110 
tests =         207, time = 2070, data_in = 20f0caaa (hex), data_out = 11001111 
tests =         208, time = 2080, data_in = 2185aacc (hex), data_out = 11010000 
tests =         209, time = 2090, data_in = 221cf2e2 (hex), data_out = 11010001 
tests =         210, time = 2100, data_in = 22b6bf3d (hex), data_out = 11010010 
tests =         211, time = 2110, data_in = 23532e07 (hex), data_out = 11010011 
tests =         212, time = 2120, data_in = 23f25f6b (hex), data_out = 11010100 
tests =         213, time = 2130, data_in = 249475c8 (hex), data_out = 11010101 
tests =         214, time = 2140, data_in = 253995df (hex), data_out = 11010110 
tests =         215, time = 2150, data_in = 25e1e717 (hex), data_out = 11010111 
tests =         216, time = 2160, data_in = 268d93b8 (hex), data_out = 11011000 
tests =         217, time = 2170, data_in = 273cc93c (hex), data_out = 11011001 
tests =         218, time = 2180, data_in = 27efb8a1 (hex), data_out = 11011010 
tests =         219, time = 2190, data_in = 28a696c8 (hex), data_out = 11011011 
tests =         220, time = 2200, data_in = 29619ce7 (hex), data_out = 11011100 
tests =         221, time = 2210, data_in = 2a210900 (hex), data_out = 11011101 
tests =         222, time = 2220, data_in = 2ae51e75 (hex), data_out = 11011110 
tests =         223, time = 2230, data_in = 2bae26ab (hex), data_out = 11011111 
tests =         224, time = 2240, data_in = 2c7c71c4 (hex), data_out = 11100000 
tests =         225, time = 2250, data_in = 2d505780 (hex), data_out = 11100001 
tests =         226, time = 2260, data_in = 2e2a3839 (hex), data_out = 11100010 
tests =         227, time = 2270, data_in = 2f0a7e10 (hex), data_out = 11100011 
tests =         228, time = 2280, data_in = 2ff19e4c (hex), data_out = 11100100 
tests =         229, time = 2290, data_in = 30e01af9 (hex), data_out = 11100101 
tests =         230, time = 2300, data_in = 31d684d9 (hex), data_out = 11100110 
tests =         231, time = 2310, data_in = 32d57dae (hex), data_out = 11100111 
tests =         232, time = 2320, data_in = 33ddbb08 (hex), data_out = 11101000 
tests =         233, time = 2330, data_in = 34f0099e (hex), data_out = 11101001 
tests =         234, time = 2340, data_in = 360d5175 (hex), data_out = 11101010 
tests =         235, time = 2350, data_in = 37369aef (hex), data_out = 11101011 
tests =         236, time = 2360, data_in = 386d1524 (hex), data_out = 11101100 
tests =         237, time = 2370, data_in = 39b21dcf (hex), data_out = 11101101 
tests =         238, time = 2380, data_in = 3b074b72 (hex), data_out = 11101110 
tests =         239, time = 2390, data_in = 3c6e7a4c (hex), data_out = 11101111 
tests =         240, time = 2400, data_in = 3de9dd4f (hex), data_out = 11110000 
tests =         241, time = 2410, data_in = 3f7c148e (hex), data_out = 11110001 
tests =         242, time = 2420, data_in = 41284b66 (hex), data_out = 11110010 
tests =         243, time = 2430, data_in = 42f261e6 (hex), data_out = 11110011 
tests =         244, time = 2440, data_in = 44df26cc (hex), data_out = 11110100 
tests =         245, time = 2450, data_in = 46f4aad9 (hex), data_out = 11110101 
tests =         246, time = 2460, data_in = 493abbfd (hex), data_out = 11110110 
tests =         247, time = 2470, data_in = 4bbba1bf (hex), data_out = 11110111 
tests =         248, time = 2480, data_in = 4e854925 (hex), data_out = 11111000 
tests =         249, time = 2490, data_in = 51ab3a3e (hex), data_out = 11111001 
tests =         250, time = 2500, data_in = 554a1386 (hex), data_out = 11111010 
tests =         251, time = 2510, data_in = 598e3ae0 (hex), data_out = 11111011 
tests =         252, time = 2520, data_in = 5ec222d6 (hex), data_out = 11111100 
tests =         253, time = 2530, data_in = 65718cfb (hex), data_out = 11111101 
tests =         254, time = 2540, data_in = 6ed6f9c7 (hex), data_out = 11111110 
tests =         255, time = 2550, data_in = 7ee358a0 (hex), data_out = 11111111 
